date,mean_pos,mean_neg,weighted_mean_pos,weighted_mean_neg
2018-08-10,1.5050935666039198,-1.3593732698483003,3.0949784077067877,-2.7857380135090244
2018-08-11,1.5858037707764823,-1.3635264202431159,2.9872240138923343,-2.802623418506574
2018-08-12,1.6014003500875218,-1.3490158253849176,3.402350587646912,-2.7042474904440397
2018-08-13,1.5195239866121235,-1.3837857939754556,3.043310352719055,-2.8602282804588492
2018-08-14,1.4580915136871995,-1.3975639524746557,2.881410815253942,-2.8869903106085135
2018-08-15,1.4661952397378406,-1.390594457859032,3.049701046337818,-2.7034034724617686
2018-08-16,1.4362411979951415,-1.3554011254266474,3.206328218689462,-2.7269149165154825
2018-08-17,1.4547235460951433,-1.3248150638870209,3.2916581386509165,-2.813426507996842
2018-08-18,1.5055297078788803,-1.3675158264053084,2.8888719395927085,-2.625810388223629
2018-08-19,1.4970340790136858,-1.3879734811770637,3.3055092466948395,-3.002752684836971
2018-08-20,1.4499649678618212,-1.368964571846346,3.037560544673592,-2.899533920248576
2018-08-21,1.4345053332580846,-1.3880015802246177,2.825554489531012,-2.66883006941701
2018-08-22,1.4399279511788585,-1.3748958249321181,3.065919294566766,-2.8351211119176276
2018-08-23,1.4422001658685357,-1.4022579523261725,2.9762968511731187,-3.1023034324085716
2018-08-24,1.4513412795493983,-1.3518618610075954,3.1742952237362387,-2.669046738542941
2018-08-25,1.4704354572132088,-1.3560899922420482,2.7584241238573886,-2.4749215772253517
2018-08-26,1.4799353226517713,-1.3641775687196824,2.5610024988975453,-2.3931721299426725
2018-08-27,1.460292409850222,-1.36819224012149,3.3154572253818895,-2.922252330047941
2018-08-28,1.4793850454227813,-1.3557759501155728,2.992743105950653,-2.8162393162393164
2018-08-29,1.4819544697390339,-1.3359537099272334,3.1533358660393347,-2.695812268038224
2018-08-30,1.4542573239677916,-1.3343898121180973,2.8171149563131745,-2.444092284849523
2018-08-31,1.4513240107110978,-1.3354061291282358,3.156501041356739,-2.6952692650996726
2018-09-01,1.4758685250676098,-1.3354136328964705,2.875563414465016,-2.534151584494834
2018-09-02,1.4894577777777778,-1.3605333333333334,2.984817777777778,-2.6516266666666666
2018-09-03,1.4705636743215031,-1.3502489160109201,2.9371125742733257,-2.6572667416091216
2018-09-04,1.4631431717406185,-1.3521114186233372,2.8705770318126356,-2.629646162545011
2018-09-05,1.4712213883176197,-1.3774204748804786,2.8275954167890816,-2.5675863358350473
2018-09-06,1.4812937484914313,-1.4242497385147639,3.014214069246654,-2.8214391074637275
2018-09-07,1.46568799159316,-1.388943731490622,2.8806801897907843,-2.725058115466675
2018-09-08,1.4901689708141321,-1.3781490015360982,3.2640552995391703,-2.7315284178187405
2018-09-09,1.4920495405513383,-1.3671194566520175,2.9700759089093087,-2.771274470635238
2018-09-10,1.445577907013697,-1.3624114151333142,2.9010709632313216,-2.6442940223090856
2018-09-11,1.4711981205951448,-1.398151918559123,3.433108848864526,-2.9428034455755676
2018-09-12,1.4726779180927652,-1.3961406821668831,2.812079546795704,-2.679747433022542
2018-09-13,1.471503817245665,-1.3859560868793277,2.9532461383677577,-2.728827602532994
2018-09-14,1.4875960925173721,-1.361945684648696,3.1096713551982273,-2.711202121588506
2018-09-15,1.5096355506311583,-1.374579557595663,3.086185746507855,-3.1837679553638556
2018-09-16,1.5070041779306955,-1.3837552224133693,2.766404521995576,-2.488817891373802
2018-09-17,1.5019690711747191,-1.388883552652643,3.8663272820414307,-3.3320846540518043
2018-09-18,1.495984591277096,-1.375032645599373,3.0100221990075737,-2.82854531209193
2018-09-19,1.4532641819034224,-1.3663853727144866,2.952004219409283,-2.6053973277074545
2018-09-20,1.4605236094378986,-1.3811888461199424,2.9471395410337027,-2.738841712455558
2018-09-21,1.4283678024903854,-1.3473630422504908,2.772638033509937,-2.5998978027593256
2018-09-22,1.4482912434806479,-1.337016195443316,2.5897611858358496,-2.305963491627779
2018-09-23,1.4613534751388702,-1.3274962742175858,2.5563270559544775,-2.3057173824685
2018-09-24,1.4392416834148243,-1.3368029516753157,2.7270000299967005,-2.4458709541950387
2018-09-25,1.460018369562192,-1.356286008516797,2.8465584903559797,-2.6152411700854463
2018-09-26,1.452502582941109,-1.3292675926988864,2.513144300309953,-2.2576340259442085
2018-09-27,1.436228111689541,-1.3361926171320397,2.6999822527212496,-2.4093409843823945
2018-09-28,1.4449184207248724,-1.3286835222319093,2.545647029517997,-2.3509777058164154
2018-09-29,1.4576470013197127,-1.307688547827362,2.5097023314922526,-2.1934600909135344
2018-09-30,1.4340238198184034,-1.2900829369914704,2.4465233284855157,-2.164537557485948
2018-10-01,1.4115114434624971,-1.3176653394192483,2.737172639280049,-2.5469230520216244
2018-10-02,1.41630955781989,-1.3309208646795543,2.5285528362378185,-2.379233723772339
2018-10-03,1.4096844563246997,-1.3146219313608014,2.7862475804221587,-2.464067348757182
2018-10-04,1.4144269012896227,-1.329848137881162,2.5244968060744846,-2.3647402675665905
2018-10-05,1.4159345469915166,-1.3365033360504786,2.7901156296229206,-2.5076231017721824
2018-10-06,1.4328372007025978,-1.3133493574928354,2.5722936119071833,-2.3430248682629196
2018-10-07,1.4229744554145118,-1.3158987619495377,2.464229744554145,-2.3499059708509638
2018-10-08,1.4163539954727278,-1.3371577413253124,2.7404570684362306,-2.5320785140624515
2018-10-09,1.435453013905942,-1.3364267153993319,2.602866851317781,-2.4187487507495504
2018-10-10,1.4420593468403835,-1.359926533891982,3.3478161051483672,-2.685559318142685
2018-10-11,1.4500876095118898,-1.411639549436796,2.5886357947434293,-2.4325907384230288
2018-10-12,1.4444207771658095,-1.367464930164623,2.6609560904360525,-2.3991418920974956
2018-10-13,1.4921077065923862,-1.4223924481584649,2.866450015475085,-2.7148715567935624
2018-10-14,1.466204443153768,-1.3623856541309713,2.7125381152896764,-2.457201974735008
2018-10-15,1.4603010115963484,-1.3915371329879103,2.75193683691093,-2.672070071551937
2018-10-16,1.4255550644316752,-1.33572472884295,2.9589269321002347,-2.6020876542790115
2018-10-17,1.43913924654268,-1.3492787315212207,3.627980448259418,-2.7600739151168336
2018-10-18,1.426907166321937,-1.3584681834773087,2.7320233605061444,-2.5481810439226185
2018-10-19,1.4260244811069718,-1.3392096860031932,2.6777208621607236,-2.361063065460351
2018-10-20,1.4581003402025574,-1.3316779415790092,2.921675204317053,-2.5660266687521998
2018-10-21,1.442369607211848,-1.3372907276239536,2.3253380553766902,-2.172528976175145
2018-10-22,1.4473258212982065,-1.3411839390572924,2.948960482463101,-2.693223297889224
2018-10-23,1.4213776584999855,-1.3645283236660606,2.652843909618215,-2.543647014688483
2018-10-24,1.445760750395907,-1.355707150688269,2.792818857351687,-2.4629065659641856
2018-10-25,1.4701920274602507,-1.3946115734594087,2.667659726045141,-2.4706453806547715
2018-10-26,1.447195319472449,-1.3697484546987075,2.8001189964631608,-2.574422371335074
2018-10-27,1.4926951939964872,-1.4035605939645537,2.8963755388791315,-2.890108574165735
2018-10-28,1.4963979998304942,-1.3427832867192135,2.9624120688193916,-2.608399016865836
2018-10-29,1.4647078793864388,-1.371161383907904,3.126446714607574,-2.6863368414555104
2018-10-30,1.451967120537115,-1.3750705904498965,2.889910271694798,-2.627062809813641
2018-10-31,1.536644349973271,-1.3615049767074816,3.7108163836774177,-2.9718962401038618
2018-11-01,1.4866102568768387,-1.3575956085281897,2.793649349467746,-2.5046249962090195
2018-11-02,1.4708666453469779,-1.3602494403581709,2.7246242404860888,-2.431563799168532
2018-11-03,1.514410118183703,-1.3862326352892391,2.599212108646071,-2.4104499274310593
2018-11-04,1.4933121925438062,-1.368296946782128,2.6655689718258326,-2.525104687563524
2018-11-05,1.453852170512319,-1.3760917742145744,2.488332681527832,-2.341317950723504
2018-11-06,1.456241763507847,-1.3778902599736431,2.73819935306098,-2.5689469270396548
2018-11-07,1.4791196024010844,-1.3778157877751243,2.9064093461563285,-2.5785838765894273
2018-11-08,1.458162969640385,-1.3752293873345998,2.5483403625124756,-2.462058529989376
2018-11-09,1.4481949028548096,-1.374051515873286,2.6238388512708837,-2.411888801932696
2018-11-10,1.4662394045896217,-1.3744056233202397,2.486872028116601,-2.4113293363655157
2018-11-11,1.485999913446142,-1.3849050071406932,2.6759423551304797,-2.4774743584195265
2018-11-12,1.4621491257452937,-1.417029543779728,2.8679908889931,-2.6888859114356536
2018-11-13,1.4377375507311732,-1.432358435869355,2.728660697030213,-2.680925078915158
2018-11-14,1.461035212622667,-1.4824177410044257,2.749687319607466,-2.8682412930536847
2018-11-15,1.442094280565304,-1.5011856207910461,2.7662667172531537,-2.92402541970976
2018-11-16,1.4607064540982635,-1.4647661945119421,2.9824275469685295,-3.254607953535234
2018-11-17,1.4694783573806882,-1.4493895671476138,2.880170181280059,-3.162708102108768
2018-11-18,1.4827789573012502,-1.437681843202013,2.9683494534874577,-2.7930722654714164
2018-11-19,1.4667363921604293,-1.4726479014142149,2.9316083852485106,-2.953912964394525
2018-11-20,1.4594877672819255,-1.480237935259476,2.862475791470693,-2.9952966285917553
2018-11-21,1.4545968446477209,-1.4596330746698185,3.4766945886222316,-3.3115781900405983
2018-11-22,1.4493359338720164,-1.4059317049007771,2.79415497972199,-2.6831057861985697
2018-11-23,1.4600701796841915,-1.4210176054207757,2.7355859398632707,-2.820285558714986
2018-11-24,1.4545969238511622,-1.4200295662567233,2.751863617777498,-2.772874532129714
2018-11-25,1.4858246113199878,-1.4833604308505233,3.178284727161874,-3.54493953866477
2018-11-26,1.4403802129989052,-1.460510600179158,2.8431621379516274,-2.956778142729173
2018-11-27,1.4437909682099646,-1.4290747985594736,3.056221986164728,-2.97818483301811
2018-11-28,1.4747227852629068,-1.4182663646118994,3.0562775724335283,-3.039346607845475
2018-11-29,1.4759200841219768,-1.3883130539281958,3.2436532972810577,-2.915337238996545
2018-11-30,1.46686737541945,-1.399065449869853,2.8266691755260767,-2.678583748863173
2018-12-01,1.4707326283987916,-1.3849697885196375,2.746299093655589,-2.598904833836858
2018-12-02,1.487722980062959,-1.3847639034627492,2.6458761804826865,-2.595299055613851
2018-12-03,1.4590950141695993,-1.4103578213073402,2.951979072591947,-2.920432250630625
2018-12-04,1.4560182979128944,-1.4259347501508943,2.8661329775405826,-2.9046983703421327
2018-12-05,1.467756824475801,-1.3968745878939735,2.776737439008308,-2.5823552683634445
2018-12-06,1.467685040336186,-1.405785098616607,2.7879206159320264,-2.5736327106530474
2018-12-07,1.479235836627141,-1.4356258234519104,2.9197101449275364,-2.7413438735177866
2018-12-08,1.5091956654456655,-1.3872100122100122,2.656288156288156,-2.5549832112332114
2018-12-09,1.5130245447347586,-1.392319873317498,2.563974663499604,-2.382264449722882
2018-12-10,1.4759884081970607,-1.3938453046298214,2.8625543365762782,-2.5304974815428136
2018-12-11,1.470955447496386,-1.3943685109738468,2.715599947430674,-2.5491194637928767
2018-12-12,1.4476584942213908,-1.3867659830315986,2.49101476384528,-2.3148840937938404
2018-12-13,1.4404071640252545,-1.4862453292101534,2.851501095219688,-3.0586586780054117
2018-12-14,1.4295120517342739,-1.481363903586126,2.6417009602194788,-2.5325102880658434
2018-12-15,1.4557613569896666,-1.4340027295769155,2.5994930785728214,-2.5220510820822772
2018-12-16,1.4729409775071876,-1.4081261626923727,2.622061559276171,-2.473955690850668
2018-12-17,1.4708522863299018,-1.4118386401723726,3.1320924108211634,-2.979530763706009
2018-12-18,1.450349956255468,-1.392294713160855,2.5376827896512935,-2.395856767904012
2018-12-19,1.4699590800056441,-1.371017355721744,2.6627628051361647,-2.4236771553548753
2018-12-20,1.4731868581960739,-1.367309323893391,2.747988648664463,-2.45516515022966
2018-12-21,1.4646503563860527,-1.3530790470686445,2.742727798112117,-2.433249855519168
2018-12-22,1.4658536585365853,-1.3306677329068373,2.7021991203518594,-2.4510595761695324
2018-12-23,1.4808055380742606,-1.3374449339207048,2.674386406544997,-2.329934969582547
2018-12-24,1.5014531792727015,-1.3403274969873114,2.709612249237967,-2.460657829446374
2018-12-25,1.4690901360544217,-1.329591836734694,3.094557823129252,-2.8341836734693877
2018-12-26,1.4537928302634184,-1.3337690631808279,2.504693998811646,-2.244127550009903
2018-12-27,1.4546664331990895,-1.3652600245140956,2.748520399229557,-2.4736123270880754
2018-12-28,1.448718392196202,-1.3531426199453458,2.9724999135217405,-2.5971842678750563
2018-12-29,1.4511874402295186,-1.3678673892253745,2.7709196684730633,-2.7367309531399426
2018-12-30,1.4632975837749864,-1.3583441138421732,2.644493594291199,-2.4463130659767143
2018-12-31,1.4964741185296324,-1.355588897224306,3.0564141035258814,-2.7618904726181546
2019-01-01,1.462195753495598,-1.330873467978595,2.6993785603314344,-2.430994303469705
2019-01-02,1.4735785953177258,-1.4005016722408026,3.075752508361204,-2.7487736900780377
2019-01-03,1.5411761145243787,-1.3775006809721255,3.706939862594958,-3.1418843255349413
2019-01-04,1.47256927479584,-1.3754798631953653,2.7179102394081105,-2.5155999162420604
2019-01-05,1.468116781076834,-1.3748656025142667,2.8542717723926887,-2.513605160863452
2019-01-06,1.4878048780487805,-1.3804264457738917,2.6209541340696427,-2.3750958736002454
2019-01-07,1.4934704919675361,-1.3778764904311813,2.861260478941919,-2.4472796499782907
2019-01-08,1.4733814968085852,-1.3820930069439574,2.8793575085922702,-2.8074630006312686
2019-01-09,1.4694304716248607,-1.3834441781168765,2.6585530535768545,-2.5338442321326085
2019-01-10,1.4548976560986635,-1.403790275715116,2.6501581971976496,-2.5369342028798347
2019-01-11,1.447170614097291,-1.3707275563749823,3.0214508580343216,-2.8369380229754646
2019-01-12,1.4711891595255182,-1.3596606019671578,2.5750348262906835,-2.3089197517835283
2019-01-13,1.4855297374381344,-1.356052344601963,2.6035567485949165,-2.2488465732740544
2019-01-14,1.456127986468391,-1.3761012051589259,2.4905208259919656,-2.4714920008457257
2019-01-15,1.4732406386686105,-1.3781515593328828,2.6896625297820136,-2.349240780911063
2019-01-16,1.449813036146345,-1.3940538162621894,2.497543808197082,-2.4306767358310726
2019-01-17,1.4429101548562049,-1.4032327124812674,2.8374723471062584,-2.671055448512096
2019-01-18,1.4328726554787758,-1.3770624735580312,2.5233394443660977,-2.30147369905514
2019-01-19,1.462817147856518,-1.36862058909303,2.593092530100404,-2.329292171811857
2019-01-20,1.4483999824415084,-1.3949343751371757,2.5019094859751547,-2.4081032439313463
2019-01-21,1.4323106060606061,-1.3809090909090909,2.5957575757575757,-2.5047727272727274
2019-01-22,1.4378879771673208,-1.3952550838387443,2.500392436674991,-2.4902961113093114
2019-01-23,1.4292517472934083,-1.3898862546251884,2.7481841852816227,-2.6061395093874196
2019-01-24,1.4334037298206679,-1.3929913734473995,2.5704621111787236,-2.372015606543294
2019-01-25,1.4287242987082474,-1.3898188488878698,2.67744401131239,-2.5325995566766033
2019-01-26,1.4319144474732648,-1.373998741874607,2.489662403019501,-2.2707905221220384
2019-01-27,1.4478890285341899,-1.3832332542009962,2.5931666899408836,-2.325373551180003
2019-01-28,1.4243811704106453,-1.4069251681213335,2.555551581055945,-2.4906996709114324
2019-01-29,1.4562086956521738,-1.3960695652173913,2.5502608695652174,-2.385808695652174
2019-01-30,1.4350537860471635,-1.3905182382003574,2.6179263464031677,-2.348155156102176
2019-01-31,1.4356058026288905,-1.3860587073486346,2.729891711503099,-2.5527821289927126
2019-02-01,1.4293933247280104,-1.377060667527199,2.688179974184031,-2.533247280103264
2019-02-02,1.4412955465587045,-1.3701428637907767,2.6344176090092604,-2.4671692493834056
2019-02-03,1.4365787250023472,-1.377570181203643,2.665759083654117,-2.471411135104685
2019-02-04,1.405877803557618,-1.4017014694508894,2.6507347254447025,-2.457733952049497
2019-02-05,1.4279444564357149,-1.4054608245197495,2.9781638966832147,-2.7168861069141665
2019-02-06,1.4345929779743918,-1.4020062930309356,2.694258388111779,-2.4247172809121778
2019-02-07,1.426251783409199,-1.4254365106325158,2.9304640260887287,-2.5908010055030912
2019-02-08,1.4394367987795187,-1.372373899501001,2.5394908304993167,-2.379970123637288
2019-02-09,1.4537856847331403,-1.379437318990484,2.9345469590401323,-2.6692180388911875
2019-02-10,1.4527303979902155,-1.3834897968178412,2.5867160297941734,-2.44858742121733
2019-02-11,1.4304599472584678,-1.362375423815884,2.5720743861091133,-2.2516182061029486
2019-02-12,1.4357677235482722,-1.3760598503740649,2.9630566441040256,-2.623690773067332
2019-02-13,1.4189091387591288,-1.3598592012632411,2.769425620106586,-2.474143035726035
2019-02-14,1.472127417519909,-1.4302616609783845,3.043946042580855,-2.9261498456037707
2019-02-15,1.444914955183852,-1.3983696802879526,2.6084056743595174,-2.4139671112993155
2019-02-16,1.468811089390439,-1.3779545050648658,2.5690865470055093,-2.3211746934423316
2019-02-17,1.4679763897453968,-1.3700555017179104,2.7047396705136113,-2.426790591137345
2019-02-18,1.4813875613641536,-1.3583016352937352,2.967651744204948,-2.482622972138236
2019-02-19,1.4725794007972226,-1.3714478590716215,2.785199948566285,-2.507104281856757
2019-02-20,1.484081041968162,-1.3528597495752848,2.9000503366261876,-2.508557226451897
2019-02-21,1.5079220483456421,-1.3702052900413182,3.205908188827797,-2.7115203175326155
2019-02-22,1.4603664813670991,-1.358829181250429,2.5797817582870084,-2.3549173014892597
2019-02-23,1.4645041705282669,-1.3640407784986097,2.6420018535681185,-2.397924003707136
2019-02-24,1.4915673160802558,-1.3972448386158767,2.668035766211108,-2.578038674033149
2019-02-25,1.4658227848101266,-1.4194870086608928,2.9117255163224516,-2.6289140572951366
2019-02-26,1.4646866562455592,-1.3780730424896974,2.8312846383402017,-2.71603666335086
2019-02-27,1.4640620023357045,-1.403227518844888,2.5993205223484446,-2.398715362565028
2019-02-28,1.45103066352169,-1.3755170409872493,2.491368406659146,-2.342494786859467
2019-03-01,1.4581091468101461,-1.4043378003542426,2.649700898974033,-2.4880192494068107
2019-03-02,1.446072009844786,-1.3874796554324957,2.45571831209559,-2.3132864912071773
2019-03-03,1.453762205628949,-1.3999343562812834,2.81771559858866,-2.5437351275949784
2019-03-04,1.448377982775641,-1.3938114851754775,2.727712155768118,-2.566327398985601
2019-03-05,1.4723718332335927,-1.3962696987831638,2.6069884965755703,-2.341877784427156
2019-03-06,1.4845230574857864,-1.3995126793610686,3.1988087717715006,-2.8693258731161446
2019-03-07,1.4577152067366206,-1.3814677148778,2.538238873721259,-2.3511068714844905
2019-03-08,1.4809600900964313,-1.381185331174773,2.9763144928556344,-2.5944604772295348
2019-03-09,1.4651087309315158,-1.3630720545277508,2.8421778643297633,-2.900194741966894
2019-03-10,1.4650419330731546,-1.3743253342190485,2.4954330316366353,-2.1974175869799883
2019-03-11,1.461652835408022,-1.3832295988934993,2.5069156293222683,-2.216977869986169
2019-03-12,1.4700150175204405,-1.3798765226097114,2.480160186884699,-2.3327215084264976
2019-03-13,1.4386656977750094,-1.3812588670888266,2.469151181701789,-2.3754109138724524
2019-03-14,1.4417173833516246,-1.3849812098839336,2.522797565599122,-2.298147593867438
2019-03-15,1.4357429042793173,-1.3705599138076159,2.7301437662031582,-2.4633177334096494
2019-03-16,1.4587152323136134,-1.3617029718684284,2.6321469666309567,-2.4037217791532752
2019-03-17,1.4620371154986866,-1.3641216846029998,2.4789424625031775,-2.2670960088128123
2019-03-18,1.380732139342649,-1.3462408974611297,2.876205471363905,-2.7865085613068294
2019-03-19,1.4922412099783933,-1.3750736593989392,2.560891769789825,-2.320467491651935
2019-03-20,1.4947216287545557,-1.3766494910142013,3.3764609777554355,-2.7620020108080934
2019-03-21,1.4879979570990807,-1.3657750255362615,2.6220952502553625,-2.3789581205311543
2019-03-22,1.4441199711409627,-1.3548974473494348,3.0126773628336827,-2.560655512419693
2019-03-23,1.4199698149177853,-1.339343871633966,2.554333147986337,-2.2771864325998887
2019-03-24,1.4339582263311077,-1.3850796096558808,2.5283341893511384,-2.2551789077212807
2019-03-25,1.3851240543829022,-1.3841718245781094,2.331852086970322,-2.215045230915728
2019-03-26,1.4290041782729805,-1.3717618384401113,2.5087395543175486,-2.2815807799442895
2019-03-27,1.4573760373088265,-1.3832041698100268,2.6115149852547836,-2.3276867155887797
2019-03-28,1.435881111148343,-1.3787822940052943,2.713668196897095,-2.4905673022149246
2019-03-29,1.4374798996590983,-1.3704251624107544,2.8760210973178104,-2.6108574001415064
2019-03-30,1.4504034171808258,-1.38609397247271,3.0556082898275587,-3.343062806517956
2019-03-31,1.4662611587607213,-1.3745842814633293,2.526080868195344,-2.3118326623490284
2019-04-01,1.4535110867404641,-1.3515884711607664,3.268549299153501,-3.082867815894993
2019-04-02,1.4752628082379147,-1.3647856500840205,2.957813904412052,-2.657411387705655
2019-04-03,1.4861712467968542,-1.3591278607404789,3.0107802421136345,-2.68436864893523
2019-04-04,1.4952547939105507,-1.3715732932565194,2.722468063788929,-2.4274303526203
2019-04-05,1.4912542442638133,-1.3809033851219261,2.927410227389649,-2.859759234489145
2019-04-06,1.4344928064104898,-1.34201420506283,2.7918047714441814,-2.564232380258605
2019-04-07,1.4515665844409262,-1.3644195721807002,2.6233202017598765,-2.4925444571260265
2019-04-08,1.4319870364142233,-1.3740177943559482,2.638242578041398,-2.4713364111658054
2019-04-09,1.3905397885364497,-1.3833611574846967,2.6064273789649417,-2.5558430717863105
2019-04-10,1.44167514904755,-1.3818234695361349,2.570655809219136,-2.379147884251854
2019-04-11,1.484765900113299,-1.4182258015126925,2.757234283614539,-2.562788988578253
2019-04-12,1.466236072985629,-1.4154690779912804,2.7447117713547553,-2.5530114645567576
2019-04-13,1.4506083486561558,-1.387347912835961,2.663471695160596,-2.5326082704119557
2019-04-14,1.4543425483593078,-1.3869919335891612,2.6482105098284907,-2.5252956378729734
2019-04-15,1.4453941120607787,-1.4099893162393162,2.7141203703703702,-2.705721747388414
2019-04-16,1.4261305319084707,-1.402976513916561,2.695012980740204,-2.6994807703918373
2019-04-17,1.4387614391375203,-1.3889306756926163,2.643349630186787,-2.452112322928419
2019-04-18,1.4301442672741078,-1.3846178182738547,2.763699063528221,-2.7663249810174637
2019-04-19,1.4610424323421316,-1.405111927831607,2.8556298028733713,-2.5770464416972936
2019-04-20,1.460558735453546,-1.4264432735680983,2.603654145028619,-2.484629089117168
2019-04-21,1.4556985361896686,-1.4262010987795435,2.545075771542347,-2.3125990929538
2019-04-22,1.4487567466383802,-1.4191807319127694,2.7091067918759553,-2.433625557670109
2019-04-23,1.4371896595853597,-1.4116201689275658,2.645866393652419,-2.5932173022779628
2019-04-24,1.4473456393644055,-1.4108185093133012,2.628221955374347,-2.408891619425284
2019-04-25,1.4450439939720967,-1.4290019930970783,2.673715424626902,-2.626464440231394
2019-04-26,1.4465323077921657,-1.4568201733034758,3.0809074092103983,-2.8766754292019603
2019-04-27,1.4306535025858016,-1.4172543488481428,3.3047328005014887,-3.025544585488168
2019-04-28,1.4485124032862726,-1.4063571827390924,2.8577410863843027,-2.5053441812235784
2019-04-29,1.4331348675408082,-1.3923267326732673,3.2817433770404065,-2.9376170725180626
2019-04-30,1.4509957814186205,-1.4114915464861506,2.805487426011315,-2.6220608914614605
2019-05-01,1.4486002383943817,-1.3936406687928868,2.9477143133275345,-2.807834799136626
2019-05-02,1.4429194497819258,-1.394943117699088,2.7686888095891664,-2.553146063988776
2019-05-03,1.4530663808284205,-1.3929255034070898,2.825587627287344,-2.729500038281908
2019-05-04,1.4984305245535714,-1.4115862165178572,2.8927176339285716,-2.7405482700892856
2019-05-05,1.5257140627438739,-1.4245356641173716,2.9695645387857033,-3.1154596535039802
2019-05-06,1.4583105390185036,-1.409042638777152,2.962960579243765,-2.6215929203539825
2019-05-07,1.4817513888059255,-1.4035003882683232,2.837703840869721,-2.5899587838241445
2019-05-08,1.4993398040260373,-1.5859760476267692,3.1061178160253884,-3.3687368250364846
2019-05-09,1.4918981185204148,-1.4775374376039934,2.855394854729297,-2.8006143606809166
2019-05-10,1.5076542958302555,-1.4381415726330269,2.888407753636109,-2.7082961868616113
